{
    "palette": {
        "mainheader": {
            "color": "#38424B",
            "background": "#38424B"
        },
        "common": {
            "black": "#fff",
            "white": "#60686F",
            "primarytotabsection": "#d3d3d366",
            "closeavatar": "#d3d3d366",
            "primarytogray": "#DCDEE1",
            "search": "#5d6d7a",
            "taskid": "#68727B",
            "whitetogray": "#DCDEE1",
            "hr": "rgba(0, 0, 0, 0.19)",
            "divider": "rgba(255, 255, 255, 0.17)",
            "graytotransparent": "transparent",
            "shimmer": "linear-gradient( to right, #38424B 0%, #38424b85 20%, #38424B 40%, #38424B 100%)",
            "modalshimmer": "linear-gradient(to right, #38424b 0%, #38424b 20%, #262b2f70 40%, #53616e00 100%)"
        },
        "table": {
            "header": "#4C5965",
            "tableRow1": "",
            "tableRow2": "#566471"
        },
        "menupaper": {
            "shadow": "0px 5px 5px -3px rgba(0,0,0,0.2), 0px 8px 10px 1px rgba(0,0,0,0.14), 0px 3px 14px 2px rgba(0,0,0,0.12) !important"
        },
        "type": "dark",
        "types": {
            "dark": {
                "background": {
                    "paper": "#2d353c",
                    "default": "#2d353c",
                    "appBar": "#2d353c",
                    "contentFrame": "#2d353c",
                    "chip": "#2d353c",
                    "avatar": "#2d353c"
                }
            }
        },
        "primary": {
            "light": "rgba(81, 147, 141, 1)",
            "main": "rgba(38, 120, 113, 1)",
            "dark": "rgba(26, 84, 79, 1)",
            "contrastText": "#fff"
        },
        "secondary": {
            "light": "rgba(255, 172, 51, 1)",
            "main": "rgba(255, 152, 0, 1)",
            "dark": "rgba(178, 106, 0, 1)",
            "contrastText": "#fff"
        },
        "text": {
            "icon": "#A3AAB1",
            "secondary": "#DCDEE1",
            "active": "#15B2A5",
            "error": "#FF8E85",
            "Primarytowhite": "#fff",
            "over": "rgba(255, 255, 255, 0.2)",
            "disableBg": "#78828d73",
            "disabledText": "#a3aab14d",
            "whitetoprimary": "#267871"
        },
        "background": {
            "tableHeader": "rgba(173, 216, 230, 0.1)",
            "chip": "#666D74",
            "lightBackground": "#47535E",
            "drakBackground": "#65717D",
            "paperelevation": "#47535E",
            "menu": "#2d353c",
            "paper": "#53616E",
            "default": "#38424B",
            "appBar": "#2d353c",
            "contentFrame": "#2d353c",
            "avatar": "#2d353c",
            "hashtag": "#66727E",
            "border": "#414c56",
            "over": "rgba(0, 0, 0, 0.07)"
        }
    },
    "status": {
        "danger": "red"
    },
    "typography": {
        "button": {
            "fontWeight": "400",
            "textAlign": "capitalize"
        }
    }
}